com\project\bank\service\AccountService.class
com\project\bank\controller\AccountController.class
com\project\bank\entity\Transaction.class
com\project\bank\service\impl\AccountServiceImpl.class
com\project\bank\BankApplication.class
com\project\bank\service\TransactionService.class
com\project\bank\service\impl\TransactionServiceImpl.class
com\project\bank\controller\TransactionController.class
com\project\bank\repository\TransactionRepository.class
com\project\bank\entity\Account.class
com\project\bank\dto\TransferDetails.class
com\project\bank\repository\AccountRepository.class
