C:\Users\ilakiyam\OneDrive - HCL Technologies Ltd\Documents\Microservices\bank-app\bank\src\main\java\com\project\bank\service\impl\TransactionServiceImpl.java
C:\Users\ilakiyam\OneDrive - HCL Technologies Ltd\Documents\Microservices\bank-app\bank\src\main\java\com\project\bank\service\AccountService.java
C:\Users\ilakiyam\OneDrive - HCL Technologies Ltd\Documents\Microservices\bank-app\bank\src\main\java\com\project\bank\controller\TransactionController.java
C:\Users\ilakiyam\OneDrive - HCL Technologies Ltd\Documents\Microservices\bank-app\bank\src\main\java\com\project\bank\BankApplication.java
C:\Users\ilakiyam\OneDrive - HCL Technologies Ltd\Documents\Microservices\bank-app\bank\src\main\java\com\project\bank\entity\Transaction.java
C:\Users\ilakiyam\OneDrive - HCL Technologies Ltd\Documents\Microservices\bank-app\bank\src\main\java\com\project\bank\repository\TransactionRepository.java
C:\Users\ilakiyam\OneDrive - HCL Technologies Ltd\Documents\Microservices\bank-app\bank\src\main\java\com\project\bank\dto\TransferDetails.java
C:\Users\ilakiyam\OneDrive - HCL Technologies Ltd\Documents\Microservices\bank-app\bank\src\main\java\com\project\bank\entity\Account.java
C:\Users\ilakiyam\OneDrive - HCL Technologies Ltd\Documents\Microservices\bank-app\bank\src\main\java\com\project\bank\repository\AccountRepository.java
C:\Users\ilakiyam\OneDrive - HCL Technologies Ltd\Documents\Microservices\bank-app\bank\src\main\java\com\project\bank\service\impl\AccountServiceImpl.java
C:\Users\ilakiyam\OneDrive - HCL Technologies Ltd\Documents\Microservices\bank-app\bank\src\main\java\com\project\bank\controller\AccountController.java
C:\Users\ilakiyam\OneDrive - HCL Technologies Ltd\Documents\Microservices\bank-app\bank\src\main\java\com\project\bank\service\TransactionService.java
